RippleCarryAdder4/simulation/qsim/rca4.msim.vcd
$comment
	File created using the following command:
		vcd file rca4.msim.vcd -direction
$end
$date
	Tue Nov 01 20:29:25 2022
$end
$version
	ModelSim Version 2020.1
$end
$timescale
	1ps
$end

$scope module rca4bits_vlg_vec_tst $end
$var reg 1 ! A0 $end
$var reg 1 " A1 $end
$var reg 1 # A2 $end
$var reg 1 $ A3 $end
$var reg 1 % B0 $end
$var reg 1 & B1 $end
$var reg 1 ' B2 $end
$var reg 1 ( B3 $end
$var reg 1 ) SUB $end
$var wire 1 * C4 $end
$var wire 1 + S0 $end
$var wire 1 , S1 $end
$var wire 1 - S2 $end
$var wire 1 . S3 $end
$var wire 1 / V $end

$scope module i1 $end
$var wire 1 0 gnd $end
$var wire 1 1 vcc $end
$var wire 1 2 unknown $end
$var tri1 1 3 devclrn $end
$var tri1 1 4 devpor $end
$var tri1 1 5 devoe $end
$var wire 1 6 B3~combout $end
$var wire 1 7 SUB~combout $end
$var wire 1 8 A3~combout $end
$var wire 1 9 B2~combout $end
$var wire 1 : A2~combout $end
$var wire 1 ; B1~combout $end
$var wire 1 < A1~combout $end
$var wire 1 = A0~combout $end
$var wire 1 > B0~combout $end
$var wire 1 ? inst534648|inst4~0_combout $end
$var wire 1 @ inst534647|inst4~0_combout $end
$var wire 1 A inst534646|inst4~0_combout $end
$var wire 1 B inst87665~combout $end
$var wire 1 C inst534645|inst4~0_combout $end
$var wire 1 D inst534645|inst14~0_combout $end
$var wire 1 E inst534646|inst14~0_combout $end
$var wire 1 F inst534647|inst14~combout $end
$var wire 1 G inst534648|inst14~0_combout $end
$upscope $end
$upscope $end
$enddefinitions $end
#0
$dumpvars
0!
0"
0#
1$
1%
1&
1'
1(
0)
1*
1+
1,
1-
0.
1/
00
11
x2
13
14
15
16
07
18
19
0:
1;
0<
0=
1>
0?
0@
0A
1B
1C
0D
1E
1F
1G
$end
#62500
0$
1#
1"
1!
0(
0&
0%
08
1:
1<
1=
06
0;
0>
0C
0B
0E
1A
1D
1B
0*
0/
0-
1.
1/
#125000
1(
1&
16
1;
0D
1C
0B
0F
1@
1E
0.
1*
0/
0,
1-
#187500
0"
0!
1%
0<
0=
1>
1F
0@
0E
1,
0-
#250000
0#
0(
1!
0%
0:
06
1=
0>
1E
0A
1D
0C
1B
0D
0B
1-
1.
0*
1/
0.
0/
#312500
0'
0&
1"
1#
1%
09
0;
1<
1:
1>
0G
1?
0F
1@
0+
0E
1A
0,
1D
1B
0-
1.
1/
#375000
0!
1&
0"
0#
0%
0=
1;
0<
0:
0>
0?
1E
0A
1F
0@
0D
0B
1-
0E
1,
0.
0/
0-
#437500
1'
1!
19
1=
1E
1G
1-
1+
#480000
1)
17
0F
0E
1D
1?
1F
0,
0-
1.
1,
#500000
1$
1(
1"
1%
0'
18
16
1<
1>
09
0F
1@
0G
1E
0E
1A
0,
0+
1-
0D
1C
0-
0.
1*
#562500
0!
0%
0=
0>
#625000
0&
0$
0"
1'
1!
1%
0;
08
0<
19
1=
1>
1D
0C
1B
1E
0A
0D
0B
1.
0*
1/
1-
0.
0/
#687500
1#
0(
1$
1"
0!
1:
06
18
1<
0=
0E
1A
1C
1B
1F
1G
0?
1D
0B
0F
0-
1*
1/
1,
1+
1.
0/
0,
#750000
1&
0'
0%
0#
1(
1!
1;
09
0>
0:
16
1=
1F
0@
1?
0D
1E
0A
0F
1@
1,
0.
1D
0C
0E
1A
1-
0,
0D
1C
1.
0*
0-
0.
1*
#812500
0$
0"
0&
1'
1%
1#
0(
0!
08
0<
0;
19
1>
1:
06
0=
0?
1F
0@
1E
0A
1,
1D
0C
1-
1.
0*
#875000
1"
1&
0'
0%
0#
1(
1!
1<
1;
09
0>
0:
16
1=
1?
0D
0F
1@
0.
0E
1A
0,
1D
1B
0-
1.
1/
#937500
0"
1%
1#
0<
1>
1:
1F
0@
0G
1E
0E
1,
0+
1-
0-
