schem-tutorial/simulation/qsim/prime.msim.vcd
$comment
	File created using the following command:
		vcd file prime.msim.vcd -direction
$end
$date
	Wed Sep 14 08:20:20 2022
$end
$version
	ModelSim Version 2020.1
$end
$timescale
	1ps
$end

$scope module prime_vlg_vec_tst $end
$var reg 1 ! A $end
$var reg 1 " B $end
$var reg 1 # C $end
$var wire 1 $ PRIME $end

$scope module i1 $end
$var wire 1 % gnd $end
$var wire 1 & vcc $end
$var wire 1 ' unknown $end
$var tri1 1 ( devclrn $end
$var tri1 1 ) devpor $end
$var tri1 1 * devoe $end
$var wire 1 + ~QUARTUS_CREATED_GND~I_combout $end
$var wire 1 , ~QUARTUS_CREATED_UNVM~~busy $end
$var wire 1 - ~QUARTUS_CREATED_ADC1~~eoc $end
$var wire 1 . ~QUARTUS_CREATED_ADC2~~eoc $end
$var wire 1 / PRIME~output_o $end
$var wire 1 0 B~input_o $end
$var wire 1 1 A~input_o $end
$var wire 1 2 C~input_o $end
$var wire 1 3 inst~combout $end
$upscope $end
$upscope $end
$enddefinitions $end
#0
$dumpvars
0!
0"
0#
0$
0%
1&
x'
1(
1)
1*
0+
z,
z-
z.
0/
00
01
02
03
$end
#125000
1#
12
13
1/
1$
#250000
1"
0#
02
10
#375000
1#
12
#500000
1!
0"
0#
02
00
11
03
0/
0$
#625000
1#
12
13
1/
1$
#750000
1"
0#
02
10
03
0/
0$
#875000
1#
12
13
1/
1$
