Lab03wk4/simulation/qsim/palindrome.msim.vcd
$comment
	File created using the following command:
		vcd file palindrome.msim.vcd -direction
$end
$date
	Tue Oct 04 17:02:47 2022
$end
$version
	ModelSim Version 2020.1
$end
$timescale
	1ps
$end

$scope module palindrome_vlg_vec_tst $end
$var reg 1 ! A $end
$var reg 1 " B $end
$var reg 1 # C $end
$var wire 1 $ F $end

$scope module i1 $end
$var wire 1 % gnd $end
$var wire 1 & vcc $end
$var wire 1 ' unknown $end
$var tri1 1 ( devclrn $end
$var tri1 1 ) devpor $end
$var tri1 1 * devoe $end
$var wire 1 + F~output_o $end
$var wire 1 , A~input_o $end
$var wire 1 - C~input_o $end
$var wire 1 . B~input_o $end
$var wire 1 / inst6~0_combout $end
$upscope $end
$upscope $end
$enddefinitions $end
#0
$dumpvars
0!
0"
0#
0$
0%
1&
x'
1(
1)
1*
0+
0,
0-
0.
0/
$end
#125000
1#
1-
#250000
1"
0#
1.
0-
1/
1+
1$
#375000
1#
1-
0/
0+
0$
#500000
1!
0"
0#
1,
0.
0-
#625000
1#
1-
1/
1+
1$
#750000
1"
0#
1.
0-
0/
0+
0$
#875000
1#
1-
1/
1+
1$
