Lab07wk8/simulation/qsim/lab6Adder.msim.vcd
$comment
	File created using the following command:
		vcd file lab6Adder.msim.vcd -direction
$end
$date
	Tue Oct 18 08:29:06 2022
$end
$version
	ModelSim Version 2020.1
$end
$timescale
	1ps
$end

$scope module rca_vlg_vec_tst $end
$var reg 4 ! A [3:0] $end
$var reg 4 " B [3:0] $end
$var wire 1 # Overflow $end
$var wire 1 $ S [3] $end
$var wire 1 % S [2] $end
$var wire 1 & S [1] $end
$var wire 1 ' S [0] $end

$scope module i1 $end
$var wire 1 ( gnd $end
$var wire 1 ) vcc $end
$var wire 1 * unknown $end
$var tri1 1 + devclrn $end
$var tri1 1 , devpor $end
$var tri1 1 - devoe $end
$var wire 1 . Overflow~output_o $end
$var wire 1 / S[3]~output_o $end
$var wire 1 0 S[2]~output_o $end
$var wire 1 1 S[1]~output_o $end
$var wire 1 2 S[0]~output_o $end
$var wire 1 3 A[3]~input_o $end
$var wire 1 4 B[3]~input_o $end
$var wire 1 5 A[2]~input_o $end
$var wire 1 6 B[2]~input_o $end
$var wire 1 7 A[1]~input_o $end
$var wire 1 8 B[1]~input_o $end
$var wire 1 9 A[0]~input_o $end
$var wire 1 : B[0]~input_o $end
$var wire 1 ; inst2|inst4~0_combout $end
$var wire 1 < inst|inst4~0_combout $end
$var wire 1 = inst|inst14~combout $end
$var wire 1 > inst1|inst14~combout $end
$var wire 1 ? inst2|inst14~combout $end
$var wire 1 @ inst3|inst~combout $end
$upscope $end
$upscope $end
$enddefinitions $end
#0
$dumpvars
b1100 !
b1101 "
1#
1'
0&
0%
1$
0(
1)
x*
1+
1,
1-
1.
1/
00
01
12
13
14
15
16
07
08
09
1:
0;
1<
1=
0>
0?
1@
$end
#62500
b100 !
b110 !
b111 !
b1001 "
06
19
17
03
1;
0<
0@
02
0.
0#
0'
0=
1<
1.
0/
0$
1#
#125000
b1011 "
b101 !
07
18
#187500
b1 !
b11 "
b10 "
b0 !
b110 "
b100 "
0:
08
16
04
09
05
0;
1>
1=
0<
0.
1/
10
1%
1$
0#
0=
0/
0$
#250000
b10 !
b110 !
b1100 "
b1000 "
b1010 "
18
06
14
17
15
1;
0>
1=
1/
00
0%
1$
0=
1<
1.
0/
0$
1#
#312500
b10 !
05
1>
1=
0<
0.
1/
10
1%
1$
0#
#375000
b1010 !
b1011 !
b1110 "
b1100 "
08
16
19
13
0;
1<
1@
1?
11
12
1.
1#
1'
1&
0=
0/
0$
#437500
b1101 "
b1111 !
15
1:
1;
0@
0?
1=
1/
01
02
0'
0&
1$
#500000
b101 "
b1 "
b0 "
0:
06
04
0;
0=
1@
1?
11
12
0/
0$
1'
1&
1=
0<
0.
1/
1$
0#
#562500
b1101 !
b1100 !
b1000 !
b1000 "
14
09
07
05
0>
0=
1<
0?
0@
02
01
1.
0/
00
0%
0$
1#
0&
0'
#625000
b0 !
b1010 "
b1110 "
b1111 "
b10 !
b110 !
1:
18
16
17
15
03
1;
1>
1@
12
10
1%
1'
#687500
b111 !
b1101 "
b1001 "
b1000 "
b101 !
b1 !
0:
08
06
19
07
05
0;
0>
1=
0<
0.
1/
00
0%
1$
0#
#750000
b0 "
b1001 !
b1000 !
b10 "
b110 "
b111 "
b1100 !
09
15
13
1:
18
16
04
0=
1<
1?
11
1.
0/
0$
1#
1&
#812500
b1111 "
b1101 !
19
14
1;
1=
0@
0?
1>
10
01
02
1/
1$
0'
0&
1%
#875000
b1111 !
b1110 "
b1110 !
0:
09
17
#937500
b1010 !
b110 "
b111 "
b1011 !
1:
04
19
05
0>
0=
1?
11
0/
00
0%
0$
1&
