Lab05wk6/simulation/qsim/digibot2.msim.vcd
$comment
	File created using the following command:
		vcd file digibot2.msim.vcd -direction
$end
$date
	Wed Oct 12 08:11:32 2022
$end
$version
	ModelSim Version 2020.1
$end
$timescale
	1ps
$end

$scope module digibot2_vlg_vec_tst $end
$var reg 1 ! A $end
$var reg 1 " B $end
$var reg 1 # C $end
$var wire 1 $ LEN $end
$var wire 1 % REN $end

$scope module i1 $end
$var wire 1 & gnd $end
$var wire 1 ' vcc $end
$var wire 1 ( unknown $end
$var tri1 1 ) devclrn $end
$var tri1 1 * devpor $end
$var tri1 1 + devoe $end
$var wire 1 , LEN~output_o $end
$var wire 1 - REN~output_o $end
$var wire 1 . B~input_o $end
$var wire 1 / A~input_o $end
$var wire 1 0 C~input_o $end
$var wire 1 1 inst|sub|81~0_combout $end
$var wire 1 2 inst1|sub|79~combout $end
$upscope $end
$upscope $end
$enddefinitions $end
#0
$dumpvars
0!
0"
0#
0$
0%
0&
1'
x(
1)
1*
1+
0,
0-
0.
0/
00
01
02
$end
#125000
1#
10
12
1-
1%
#250000
1"
0#
1.
00
02
11
1,
0-
0%
1$
#375000
1#
10
12
1-
1%
#500000
1!
0"
0#
1/
0.
00
02
01
0,
0-
0%
0$
#625000
1#
10
11
1,
1$
#750000
1"
0#
1.
00
#875000
1#
10
