Lab06wk7/simulation/qsim/digibot3.msim.vcd
$comment
	File created using the following command:
		vcd file digibot3.msim.vcd -direction
$end
$date
	Wed Oct 19 08:14:37 2022
$end
$version
	ModelSim Version 2020.1
$end
$timescale
	1ps
$end

$scope module digibot3_vlg_vec_tst $end
$var reg 1 ! Collision $end
$var reg 1 " Left $end
$var reg 1 # Right $end
$var wire 1 $ LDIR $end
$var wire 1 % LEN $end
$var wire 1 & RDIR $end
$var wire 1 ' REN $end
$var wire 1 ( Seg0 $end
$var wire 1 ) Seg1 $end
$var wire 1 * Seg2 $end
$var wire 1 + Seg3 $end
$var wire 1 , Seg4 $end
$var wire 1 - Seg5 $end
$var wire 1 . Seg6 $end

$scope module i1 $end
$var wire 1 / gnd $end
$var wire 1 0 vcc $end
$var wire 1 1 unknown $end
$var tri1 1 2 devclrn $end
$var tri1 1 3 devpor $end
$var tri1 1 4 devoe $end
$var wire 1 5 Seg0~output_o $end
$var wire 1 6 Seg1~output_o $end
$var wire 1 7 Seg2~output_o $end
$var wire 1 8 Seg3~output_o $end
$var wire 1 9 Seg4~output_o $end
$var wire 1 : Seg5~output_o $end
$var wire 1 ; Seg6~output_o $end
$var wire 1 < RDIR~output_o $end
$var wire 1 = REN~output_o $end
$var wire 1 > LEN~output_o $end
$var wire 1 ? LDIR~output_o $end
$var wire 1 @ Left~input_o $end
$var wire 1 A Collision~input_o $end
$var wire 1 B Right~input_o $end
$var wire 1 C inst8|81~0_combout $end
$var wire 1 D inst8|82~0_combout $end
$var wire 1 E inst8|33~0_combout $end
$var wire 1 F inst8|84~0_combout $end
$var wire 1 G inst8|86~0_combout $end
$var wire 1 H inst5|sub|79~combout $end
$var wire 1 I inst7|sub|79~combout $end
$upscope $end
$upscope $end
$enddefinitions $end
#0
$dumpvars
0!
0"
0#
0$
0%
0&
0'
1(
1)
1*
1+
1,
1-
1.
0/
10
x1
12
13
14
15
16
17
18
19
1:
1;
0<
0=
0>
0?
0@
0A
0B
0C
1D
1E
0F
1G
0H
0I
$end
#125000
1#
1B
1F
1C
1H
0G
0E
07
0:
1<
1=
05
0;
08
0+
0.
0(
1'
1&
0-
0*
#250000
1"
0#
0B
1@
0H
1E
1I
1>
1?
17
0<
0=
0'
0&
1*
1$
1%
#375000
1#
1B
1H
1G
0E
0D
06
07
1:
1<
1=
1'
1&
1-
0*
0)
#500000
1!
0"
0#
0B
0@
1A
0F
0H
0I
0>
0?
0<
0=
1;
18
1+
1.
0'
0&
0$
0%
#625000
1#
1B
#750000
1"
0#
0B
1@
#875000
1#
1B
