Lab01wk2/G4detector/simulation/qsim/G4.msim.vcd
$comment
	File created using the following command:
		vcd file G4.msim.vcd -direction
$end
$date
	Wed Sep 14 08:51:09 2022
$end
$version
	ModelSim Version 2020.1
$end
$timescale
	1ps
$end

$scope module G4_vlg_vec_tst $end
$var reg 1 ! A $end
$var reg 1 " B $end
$var reg 1 # C $end
$var reg 1 $ D $end
$var wire 1 % G4 $end

$scope module i1 $end
$var wire 1 & gnd $end
$var wire 1 ' vcc $end
$var wire 1 ( unknown $end
$var tri1 1 ) devclrn $end
$var tri1 1 * devpor $end
$var tri1 1 + devoe $end
$var wire 1 , ~QUARTUS_CREATED_GND~I_combout $end
$var wire 1 - ~QUARTUS_CREATED_UNVM~~busy $end
$var wire 1 . ~QUARTUS_CREATED_ADC1~~eoc $end
$var wire 1 / ~QUARTUS_CREATED_ADC2~~eoc $end
$var wire 1 0 G4~output_o $end
$var wire 1 1 C~input_o $end
$var wire 1 2 D~input_o $end
$var wire 1 3 B~input_o $end
$var wire 1 4 A~input_o $end
$var wire 1 5 inst2~0_combout $end
$upscope $end
$upscope $end
$enddefinitions $end
#0
$dumpvars
0!
0"
0#
0$
0%
0&
1'
x(
1)
1*
1+
0,
z-
z.
z/
00
01
02
03
04
05
$end
#62500
1$
12
#125000
1#
0$
02
11
#187500
1$
12
#250000
1"
0#
0$
02
01
13
#312500
1$
12
15
10
1%
#375000
1#
0$
02
11
#437500
1$
12
#500000
1!
0"
0#
0$
02
01
03
14
#562500
1$
12
#625000
1#
0$
02
11
#687500
1$
12
#750000
1"
0#
0$
02
01
13
#812500
1$
12
#875000
1#
0$
02
11
#937500
1$
12
