FAwithVHDL/simulation/qsim/rcaWithVhdl.msim.vcd
$comment
	File created using the following command:
		vcd file rcaWithVhdl.msim.vcd -direction
$end
$date
	Fri Nov 04 08:32:55 2022
$end
$version
	ModelSim Version 2020.1
$end
$timescale
	1ps
$end

$scope module csa8_vhd_vec_tst $end
$var wire 1 ! A [7] $end
$var wire 1 " A [6] $end
$var wire 1 # A [5] $end
$var wire 1 $ A [4] $end
$var wire 1 % A [3] $end
$var wire 1 & A [2] $end
$var wire 1 ' A [1] $end
$var wire 1 ( A [0] $end
$var wire 1 ) B [7] $end
$var wire 1 * B [6] $end
$var wire 1 + B [5] $end
$var wire 1 , B [4] $end
$var wire 1 - B [3] $end
$var wire 1 . B [2] $end
$var wire 1 / B [1] $end
$var wire 1 0 B [0] $end
$var wire 1 1 cout $end
$var wire 1 2 SUB $end
$var wire 1 3 SUM [7] $end
$var wire 1 4 SUM [6] $end
$var wire 1 5 SUM [5] $end
$var wire 1 6 SUM [4] $end
$var wire 1 7 SUM [3] $end
$var wire 1 8 SUM [2] $end
$var wire 1 9 SUM [1] $end
$var wire 1 : SUM [0] $end

$scope module i1 $end
$var wire 1 ; gnd $end
$var wire 1 < vcc $end
$var wire 1 = unknown $end
$var wire 1 > devoe $end
$var wire 1 ? devclrn $end
$var wire 1 @ devpor $end
$var wire 1 A ww_devoe $end
$var wire 1 B ww_devclrn $end
$var wire 1 C ww_devpor $end
$var wire 1 D ww_A [7] $end
$var wire 1 E ww_A [6] $end
$var wire 1 F ww_A [5] $end
$var wire 1 G ww_A [4] $end
$var wire 1 H ww_A [3] $end
$var wire 1 I ww_A [2] $end
$var wire 1 J ww_A [1] $end
$var wire 1 K ww_A [0] $end
$var wire 1 L ww_B [7] $end
$var wire 1 M ww_B [6] $end
$var wire 1 N ww_B [5] $end
$var wire 1 O ww_B [4] $end
$var wire 1 P ww_B [3] $end
$var wire 1 Q ww_B [2] $end
$var wire 1 R ww_B [1] $end
$var wire 1 S ww_B [0] $end
$var wire 1 T ww_SUB $end
$var wire 1 U ww_SUM [7] $end
$var wire 1 V ww_SUM [6] $end
$var wire 1 W ww_SUM [5] $end
$var wire 1 X ww_SUM [4] $end
$var wire 1 Y ww_SUM [3] $end
$var wire 1 Z ww_SUM [2] $end
$var wire 1 [ ww_SUM [1] $end
$var wire 1 \ ww_SUM [0] $end
$var wire 1 ] ww_cout $end
$var wire 1 ^ \SUM[0]~output_o\ $end
$var wire 1 _ \SUM[1]~output_o\ $end
$var wire 1 ` \SUM[2]~output_o\ $end
$var wire 1 a \SUM[3]~output_o\ $end
$var wire 1 b \SUM[4]~output_o\ $end
$var wire 1 c \SUM[5]~output_o\ $end
$var wire 1 d \SUM[6]~output_o\ $end
$var wire 1 e \SUM[7]~output_o\ $end
$var wire 1 f \cout~output_o\ $end
$var wire 1 g \A[0]~input_o\ $end
$var wire 1 h \B[0]~input_o\ $end
$var wire 1 i \RCA0|FA0|Sum~0_combout\ $end
$var wire 1 j \A[1]~input_o\ $end
$var wire 1 k \B[1]~input_o\ $end
$var wire 1 l \SUB~input_o\ $end
$var wire 1 m \RCA0|FA1|Sum~combout\ $end
$var wire 1 n \A[2]~input_o\ $end
$var wire 1 o \B[2]~input_o\ $end
$var wire 1 p \Bsig[2]~0_combout\ $end
$var wire 1 q \RCA0|FA1|Cout~0_combout\ $end
$var wire 1 r \RCA0|FA2|Sum~combout\ $end
$var wire 1 s \A[3]~input_o\ $end
$var wire 1 t \B[3]~input_o\ $end
$var wire 1 u \Bsig[3]~1_combout\ $end
$var wire 1 v \RCA0|FA3|Sum~combout\ $end
$var wire 1 w \A[4]~input_o\ $end
$var wire 1 x \B[4]~input_o\ $end
$var wire 1 y \SUM~0_combout\ $end
$var wire 1 z \SUM~1_combout\ $end
$var wire 1 { \RCA0|FA3|Cout~0_combout\ $end
$var wire 1 | \A[5]~input_o\ $end
$var wire 1 } \B[5]~input_o\ $end
$var wire 1 ~ \SUM~2_combout\ $end
$var wire 1 !! \RCA1|FA1|Cout~0_combout\ $end
$var wire 1 "! \A[6]~input_o\ $end
$var wire 1 #! \B[6]~input_o\ $end
$var wire 1 $! \Bsig[6]~2_combout\ $end
$var wire 1 %! \RCA2|FA1|Cout~0_combout\ $end
$var wire 1 &! \SUM~3_combout\ $end
$var wire 1 '! \RCA1|FA2|Cout~0_combout\ $end
$var wire 1 (! \A[7]~input_o\ $end
$var wire 1 )! \B[7]~input_o\ $end
$var wire 1 *! \RCA2|FA2|Cout~0_combout\ $end
$var wire 1 +! \SUM~4_combout\ $end
$var wire 1 ,! \cout~0_combout\ $end
$var wire 1 -! \ALT_INV_B[7]~input_o\ $end
$var wire 1 .! \ALT_INV_A[7]~input_o\ $end
$var wire 1 /! \ALT_INV_B[6]~input_o\ $end
$var wire 1 0! \ALT_INV_A[6]~input_o\ $end
$var wire 1 1! \ALT_INV_B[5]~input_o\ $end
$var wire 1 2! \ALT_INV_A[5]~input_o\ $end
$var wire 1 3! \ALT_INV_B[4]~input_o\ $end
$var wire 1 4! \ALT_INV_A[4]~input_o\ $end
$var wire 1 5! \ALT_INV_B[3]~input_o\ $end
$var wire 1 6! \ALT_INV_A[3]~input_o\ $end
$var wire 1 7! \ALT_INV_B[2]~input_o\ $end
$var wire 1 8! \ALT_INV_A[2]~input_o\ $end
$var wire 1 9! \ALT_INV_SUB~input_o\ $end
$var wire 1 :! \ALT_INV_B[1]~input_o\ $end
$var wire 1 ;! \ALT_INV_A[1]~input_o\ $end
$var wire 1 <! \ALT_INV_B[0]~input_o\ $end
$var wire 1 =! \ALT_INV_A[0]~input_o\ $end
$var wire 1 >! \RCA2|FA2|ALT_INV_Cout~0_combout\ $end
$var wire 1 ?! \RCA1|FA2|ALT_INV_Cout~0_combout\ $end
$var wire 1 @! \RCA2|FA1|ALT_INV_Cout~0_combout\ $end
$var wire 1 A! \ALT_INV_Bsig[6]~2_combout\ $end
$var wire 1 B! \RCA1|FA1|ALT_INV_Cout~0_combout\ $end
$var wire 1 C! \RCA0|FA3|ALT_INV_Cout~0_combout\ $end
$var wire 1 D! \ALT_INV_SUM~0_combout\ $end
$var wire 1 E! \ALT_INV_Bsig[3]~1_combout\ $end
$var wire 1 F! \RCA0|FA1|ALT_INV_Cout~0_combout\ $end
$var wire 1 G! \ALT_INV_Bsig[2]~0_combout\ $end
$upscope $end
$upscope $end
$enddefinitions $end
#0
$dumpvars
01
02
0;
1<
x=
1>
1?
1@
1A
1B
1C
0T
0]
0^
1_
0`
0a
1b
1c
1d
0e
0f
0g
0h
0i
1j
0k
0l
1m
1n
1o
1p
0q
0r
1s
0t
0u
0v
0w
0x
0y
1z
1{
1|
0}
1~
1!!
0"!
1#!
1$!
0%!
1&!
0'!
0(!
0)!
0*!
0+!
0,!
1-!
1.!
0/!
10!
11!
02!
13!
14!
15!
06!
07!
08!
19!
1:!
0;!
1<!
1=!
1>!
1?!
1@!
0A!
0B!
0C!
1D!
1E!
1F!
0G!
0!
0"
1#
0$
1%
1&
1'
0(
0)
1*
0+
0,
0-
1.
0/
00
0D
0E
1F
0G
1H
1I
1J
0K
0L
1M
0N
0O
0P
1Q
0R
0S
0U
1V
1W
1X
0Y
0Z
1[
0\
03
14
15
16
07
08
19
0:
$end
#62500
1"
1$
0'
1(
1)
0*
10
1K
0J
1G
1E
1S
0M
1L
1)!
0#!
1h
1"!
1w
0j
1g
0=!
1;!
04!
00!
0<!
1/!
0-!
1+!
0$!
0&!
1'!
1*!
1y
0~
0!!
1B!
0D!
0>!
0?!
1A!
0*!
0+!
1,!
0z
1>!
0c
0d
1e
0W
0V
1U
05
04
13
0b
1f
0e
0X
1]
0U
06
03
11
#125000
0"
0$
1'
0)
00
0%
1+
0.
1J
0H
0G
0E
0S
0Q
1N
0L
0)!
1}
0o
0h
0"!
0w
0s
1j
0;!
16!
14!
10!
1<!
17!
01!
1-!
1+!
0,!
0p
1i
1&!
0'!
0y
1%!
1v
1z
0{
1C!
0@!
1D!
1?!
1G!
1r
0v
0z
0+!
1b
1a
1d
1^
0f
1e
1X
1Y
1V
1\
0]
1U
1:
17
16
14
13
01
0e
0b
0a
1`
0U
0X
0Y
1Z
18
07
06
03
#187500
1"
1$
0'
0+
0(
1*
1!
0#
0&
1,
1/
0K
0J
0I
1G
0F
1E
1D
1R
1O
0N
1M
1#!
0}
1x
1k
1(!
1"!
0|
1w
0n
0j
0g
1=!
1;!
18!
04!
12!
00!
0.!
0:!
03!
11!
0/!
1$!
1+!
0&!
1'!
1*!
1~
1!!
0%!
0r
0i
1@!
0B!
0>!
0?!
0A!
0+!
1,!
0^
0`
1c
0d
1e
0\
0Z
1W
0V
1U
0:
08
15
04
13
1f
0e
1]
0U
11
03
#250000
0"
1'
1%
1.
1J
1H
0E
1Q
1o
0"!
1s
1j
0;!
06!
10!
07!
1p
1&!
0'!
0*!
1v
0m
1q
0F!
1>!
1?!
0G!
1+!
0,!
0v
1z
1{
0C!
0_
1a
1d
0[
1Y
1V
09
17
14
1b
0a
0f
1e
1X
0Y
0]
1U
07
16
13
01
#312500
1"
0.
0$
1+
0!
1&
0,
10
1-
1I
0G
1E
0D
1S
0Q
1P
0O
1N
1}
0x
1t
0o
1h
0(!
1"!
0w
1n
08!
14!
00!
1.!
0<!
17!
05!
13!
01!
1u
0p
1i
0+!
0&!
1'!
1*!
1r
0>!
0?!
1G!
0E!
0r
1v
1+!
1`
0d
0e
1^
1Z
0V
0U
1\
1:
18
04
03
1e
1a
0`
1U
1Y
0Z
08
17
13
#375000
1$
0+
0%
1(
0*
1#
1)
1K
0H
1G
1F
0N
0M
1L
1)!
0#!
0}
1|
1w
0s
1g
0=!
16!
04!
02!
11!
1/!
0-!
0+!
1,!
0$!
1y
0~
0!!
0v
0i
1m
1B!
0D!
1A!
0*!
0z
1>!
1_
0^
0a
0c
1f
0e
1[
0\
0Y
0W
1]
0U
0:
19
07
05
03
11
0b
0X
06
#437500
0$
1+
1%
1*
0"
0&
1,
0-
0/
0I
1H
0G
0E
0R
0P
1O
1N
1M
1#!
1}
1x
0t
0k
0"!
0w
1s
0n
18!
06!
14!
10!
1:!
15!
03!
01!
0/!
1$!
0u
0m
1&!
0'!
1~
1%!
1r
0@!
1?!
1E!
0A!
1'!
1v
1z
0{
1+!
0,!
0&!
1*!
0>!
1C!
0?!
1`
1c
1d
0_
0~
0+!
1,!
1Z
1W
1V
0[
09
18
15
14
0d
0f
1e
1b
1a
0V
0]
1U
1X
1Y
17
16
04
13
01
1f
0e
0c
1]
0U
0W
11
05
03
#500000
1"
1&
0,
1-
0)
1.
00
0'
0J
1I
1E
0S
1Q
1P
0O
0L
0)!
0x
1t
1o
0h
1"!
1n
0j
1;!
08!
00!
1<!
07!
05!
13!
1-!
1+!
0,!
0y
1u
1p
1i
1&!
0r
0v
0z
1{
0q
1F!
0C!
0G!
0E!
1D!
1v
1z
0b
0a
0`
1d
1^
0f
1e
0X
0Y
0Z
1V
1\
0]
1U
1:
08
07
06
14
13
01
1b
1a
1X
1Y
17
16
#562500
0&
0-
0.
10
0*
0I
1S
0Q
0P
0M
0#!
0t
0o
1h
0n
18!
0<!
17!
15!
1/!
0$!
0u
0p
0i
1m
1r
0v
1G!
1E!
1A!
0&!
0r
1v
0z
0{
1C!
0a
1`
1_
0^
0Y
1Z
1[
0\
0:
19
18
07
0b
1a
0`
0d
0X
1Y
0Z
0V
08
17
06
04
#625000
1&
1-
1.
00
1)
0+
0(
0#
0K
1I
0F
0S
1Q
1P
0N
1L
1)!
0}
1t
1o
0h
0|
1n
0g
1=!
08!
12!
1<!
07!
05!
11!
0-!
0+!
1,!
1u
1p
1!!
0%!
1r
0m
1@!
0B!
0G!
0E!
0r
1z
1{
0'!
1&!
0*!
1>!
1?!
0C!
0_
1`
1f
0e
1+!
0,!
0[
1Z
1]
0U
09
18
03
11
1d
1b
0`
1V
1X
0Z
08
16
14
0f
1e
0]
1U
01
13
#687500
0&
0.
1#
0%
1/
0I
0H
1F
1R
0Q
0o
1k
1|
0s
0n
18!
16!
02!
0:!
17!
0p
1m
1~
1r
0z
0{
1C!
1G!
0r
0b
1`
1c
1_
0X
1Z
1W
1[
19
18
06
15
0`
0Z
08
#750000
0-
1+
1(
1*
0"
1'
0P
1N
1M
1K
1J
0E
0"!
1j
1g
1#!
1}
0t
15!
01!
0/!
0=!
0;!
10!
0&!
1i
0m
1q
1$!
0~
0!!
1%!
0u
1E!
0@!
1B!
0A!
0F!
1r
1'!
1*!
0v
0>!
0?!
0c
0_
1^
0d
0+!
1,!
0W
0[
1\
0V
1:
09
05
04
0a
1`
0Y
1Z
18
07
1f
0e
1]
0U
11
03
#812500
1-
0+
0(
1&
1.
0/
10
0)
1,
1$
1S
0R
1Q
1P
1O
0N
0L
0K
1I
1G
1w
1n
0g
0)!
0}
1x
1t
1o
0k
1h
0<!
1:!
07!
05!
03!
11!
1-!
1=!
08!
04!
0r
1v
1+!
0,!
1u
1p
1m
0q
1F!
0G!
0E!
0v
1z
1{
0C!
1_
0f
1e
1a
0`
1[
0]
1U
1Y
0Z
19
08
17
13
01
1b
0a
1X
0Y
07
16
#875000
0-
1+
0&
1/
00
1)
0,
0$
0*
1"
1!
0S
1R
0P
0O
1N
0M
1L
0I
0G
1E
1D
1(!
1"!
0w
0n
1)!
0#!
1}
0x
0t
1k
0h
1<!
0:!
15!
13!
01!
1/!
0-!
18!
14!
00!
0.!
1&!
1r
1v
0z
0{
1,!
0$!
0u
0i
0m
1q
0F!
1E!
1A!
1C!
0&!
0r
0_
0^
1f
0b
1a
1`
1d
0[
0\
1]
0X
1Y
1Z
1V
0:
09
18
17
06
14
11
0`
0d
0Z
0V
08
04
#937500
1-
0+
1&
10
0)
1,
1$
1*
0#
1%
1S
1P
1O
0N
1M
0L
1I
1H
1G
0F
0|
1w
1s
1n
0)!
1#!
0}
1x
1t
1h
0<!
05!
03!
11!
0/!
1-!
08!
06!
04!
12!
1r
0v
1z
1{
0+!
1$!
1~
1!!
0%!
1u
1i
0E!
1@!
0B!
0A!
0C!
1v
1^
1c
0e
1b
0a
1`
1\
1W
0U
1X
0Y
1Z
1:
18
07
16
15
03
1a
1Y
17
